[
  "advanced/edit-bool",
  "advanced/edit-calculated",
  "advanced/edit-date",
  "advanced/edit-group",
  "advanced/edit-html",
  "advanced/edit-image",
  "advanced/edit-list",
  "advanced/edit-location",
  "advanced/edit-number",
  "advanced/edit-rich",
  "advanced/edit-upload",
  "demo/edit-rate",
  "edit-text"
]