{
  "_id": "lsh:main",
  "_rev": "355-200b74f9a6974b4d9e84357442b2331a",
  "group": "setting::scheme::lsh",
  "heading": {
    "title": "Questionnaire 1",
    "name": "q5",
    "logo": "http://someurl/image.jpg",
    "description": "<em>Description</em> goes here"
  },
  "footer": {
    "contents": "This is a phone number <a href=\"tel:07974932396\" target=\"_blank\">07974932396</a>"
  },
  "sections": [
    {
      "title": "Property Details",
      "description": "<b>Details</b> go here",
      "questions": [
        {
          "name": "q1",
          "question": "Please choose from the list...",
          "type": "list",
          "mandatory": true,
          "list": [
            {
              "text": "One",
              "value": "1"
            },
            {
              "text": "Two",
              "value": "2"
            }
          ],
          "default": null,
          "id": "By6QreG2M"
        },
        {
          "name": "i1",
          "type": "html",
          "content": "<strong>This</strong> is some <em>intermediate</em> content.",
          "id": "B1xp7rgMnM"
        },
        {
          "name": "q2",
          "question": "Choose Yes/No",
          "type": "bool",
          "id": "HyGTmHefhG",
          "default": true
        },
        {
          "name": "q3",
          "question": "Choose a date",
          "type": "date",
          "mandatory": true,
          "id": "SJXa7rlM3f",
          "default": "1/4/2001"
        },
        {
          "name": "q4",
          "question": "Enter some text",
          "type": "text",
          "id": "By4pmHlMnf",
          "default": "This is default text"
        },
        {
          "name": "q6",
          "question": "Take a photo",
          "type": "image",
          "max": 1,
          "min": 0,
          "id": "H186XBeMhG",
          "default": null
        },
        {
          "name": "q6a",
          "question": "Upload a file",
          "type": "file",
          "max": 1,
          "min": 0,
          "id": "rkwTXrgfnM",
          "default": null
        },
        {
          "name": "q5",
          "question": "Form Title",
          "type": "text",
          "predicate": [
            {
              "question": "q2",
              "expr": ""
            }
          ],
          "id": "H1rT7HlznG",
          "default": null
        },
        {
          "name": "q7",
          "question": "Take photos",
          "type": "image",
          "min": 1,
          "max": 4,
          "id": "BydamHgG2G",
          "default": null
        },
        {
          "name": "q8",
          "question": "Enter a comma separated list!",
          "type": "list",
          "list": [
            {
              "text": "One",
              "value": 1
            },
            {
              "text": "Two",
              "value": 2
            },
            {
              "text": 3,
              "value": 3
            }
          ],
          "id": "ryKTQrgGhz",
          "default": null,
          "treeSeparator": ""
        },
        {
          "name": "q9",
          "question": "Choose from lookup table!",
          "type": "list",
          "list": "lists/properties",
          "dropdown": true,
          "id": "S1qTXSxz3G",
          "default": null,
          "treeSeparator": ","
        },
        {
          "name": "q10",
          "question": "Add records",
          "type": "group",
          "min": 0,
          "max": 2,
          "group": [
            {
              "name": "g1",
              "question": "Enter some text",
              "mandatory": true,
              "type": "text",
              "id": "ryhT7SgG3z",
              "default": null
            },
            {
              "name": "g2",
              "question": "Choose a value",
              "type": "list",
              "list": [
                {
                  "text": "Yes",
                  "value": true,
                  "default": true
                },
                {
                  "text": "No",
                  "value": false
                },
                {
                  "text": "n/a",
                  "value": null
                }
              ],
              "id": "ryp6QBgf2G",
              "default": null
            }
          ],
          "id": "B1opXHgznM",
          "default": null
        },
        {
          "name": "q11",
          "type": "number",
          "question": "Enter a number",
          "id": "SJRpQHeG3f",
          "default": 100,
          "mandatory": false
        },
        {
          "name": "q11b",
          "type": "number",
          "question": "Choose a rating",
          "id": "SJRpQHeG3f",
          "default": 3,
          "subtype": "rating",
          "mandatory": false
        },
        {
          "name": "q2a",
          "question": "Enter some rich text",
          "type": "rich",
          "height": "7rem",
          "default": null,
          "mandatory": false,
          "id": "B1WaXBxzhM"
        },
        {
          "name": "q12",
          "type": "number",
          "question": "Enter another number",
          "id": "B1JeTQHgG3M",
          "default": 3
        },
        {
          "name": "q13",
          "question": "Output of adding the two numbers...",
          "type": "calculated",
          "predicate": [
            [
              {
                "question": "q11",
                "expr": ""
              },
              {
                "question": "q12",
                "expr": ""
              }
            ]
          ],
          "template": "The answer is <%= q11 + q12%>!",
          "default": null,
          "id": "rJllamBlzhG"
        },
        {
          "type": "location",
          "name": "Test",
          "id": "r14XBxEnz",
          "convert": true,
          "question": "<br>",
          "mandatory": false
        }
      ]
    }
  ],
  "tags": "",
  "type": "form",
  "scheme": "setting::scheme::lsh"
}
