{
    "projectName": "form",
    "projectPath": "/Users/michaeltalbot/Documents/react/form",
    "defaultEditor": "idea14ce",
    "frontendHandler": {
        "javascript": "/Users/michaeltalbot/.nvm/versions/node/v8.12.0/lib/node_modules/@aws-amplify/cli/node_modules/amplify-frontend-javascript"
    },
    "javascript": {
        "framework": "react",
        "config": {
            "SourceDir": "src",
            "DistributionDir": "build",
            "BuildCommand": "npm run-script build",
            "StartCommand": "npm run-script start"
        }
    },
    "providers": {
        "awscloudformation": "/Users/michaeltalbot/.nvm/versions/node/v8.12.0/lib/node_modules/@aws-amplify/cli/node_modules/amplify-provider-awscloudformation"
    }
}